<?xml version="1.0" encoding="UTF-8"?>
<!DOCTYPE svg PUBLIC "-//W3C//DTD SVG 1.1//EN" "http://www.w3.org/Graphics/SVG/1.1/DTD/svg11.dtd">
<!-- Creator: CorelDRAW X8 -->
<svg xmlns="http://www.w3.org/2000/svg" xml:space="preserve" width="4.15342in" height="6.57537in" version="1.1" style="shape-rendering:geometricPrecision; text-rendering:geometricPrecision; image-rendering:optimizeQuality; fill-rule:evenodd; clip-rule:evenodd"
viewBox="0 0 4120 6523"
 xmlns:xlink="http://www.w3.org/1999/xlink">
 <defs>
  <style type="text/css">
   <![CDATA[
    .fil0 {fill:#7D1381;fill-rule:nonzero}
    .fil1 {fill:#567501;fill-rule:nonzero}
   ]]>
  </style>
 </defs>
 <g id="Layer_x0020_1">
  <metadata id="CorelCorpID_0Corel-Layer"/>
  <polygon class="fil0" points="1567,6523 0,5039 0,784 784,0 1733,5 675,1064 675,4790 1733,5848 3747,5843 3067,6523 "/>
  <polygon class="fil1" points="1354,1344 2013,680 2013,680 2013,680 3461,680 4120,1339 4120,4515 3461,5174 3461,5174 3461,5174 2698,5174 3581,4291 3581,1562 3238,1219 2237,1219 1360,2102 "/>
 </g>
</svg>
